Geospatial data analysis in R
…
# Get area of all overlaps
intersection$area <- expanse(intersection)
# turn it into a tibble
intersection <- as_tibble(intersection)
# Get the largest overlap
intersection <- intersection |> group_by(id) |> filter(area==max(area)) |> ungroup()

Area of overlap

Code

intersection

# A tibble: 4,906 × 4
      id CTPRVN_CD CTP_ENG_NM      area
   <int> <chr>     <chr>          <dbl>
 1    65 51        Gangwon-do   332498.
 2    66 51        Gangwon-do  3885964.
 3    67 51        Gangwon-do  1659454.
 4   193 51        Gangwon-do   477650.
 5   194 51        Gangwon-do 12783973.
 6   195 51        Gangwon-do 14674738.
 7   321 51        Gangwon-do   289674.
 8   322 51        Gangwon-do 14274204.
 9   323 51        Gangwon-do 22582297.
10   324 51        Gangwon-do   604121.
# ℹ 4,896 more rows
…
